<?xml version="1.0" encoding="UTF-8"?>
<svg width="144px" height="65px" viewBox="0 0 144 65" version="1.1" xmlns="http://www.w3.org/2000/svg" xmlns:xlink="http://www.w3.org/1999/xlink">
    <!-- Generator: Sketch 51.2 (57519) - http://www.bohemiancoding.com/sketch -->
    <title>icons/general/logo-color</title>
    <desc>Created with Sketch.</desc>
    <defs>
        <path d="M79.224367,33.0260826 L76.7055415,33.0260826 L76.7055415,27.8849981 L71.9858005,27.8849981 L71.9858005,33.0260826 L69.4588235,33.0260826 L69.4588235,21.1144098 L71.9858005,21.1144098 L71.9858005,25.7829382 L76.7055415,25.7829382 L76.7055415,21.1144098 L79.224367,21.1144098 L79.224367,33.0260826 Z M87.8242404,33.0260826 L87.3432996,31.7876597 L87.2780873,31.7876597 C86.8596395,32.3145352 86.4289709,32.679812 85.9860684,32.883501 C85.5431659,33.08719 84.965771,33.189033 84.2538664,33.189033 C83.3789302,33.189033 82.690132,32.9391782 82.1874513,32.4394612 C81.6847706,31.9397442 81.433434,31.2282013 81.433434,30.3048112 C81.433434,29.3379675 81.7717194,28.6250667 82.4483005,28.1660875 C83.1248816,27.7071083 84.1451724,27.4531798 85.5092034,27.4042945 L87.0906019,27.3554094 L87.0906019,26.9561809 C87.0906019,26.0327908 86.6178173,25.5711027 85.6722341,25.5711027 C84.9440264,25.5711027 84.0881233,25.7910835 83.1044994,26.2310517 L82.281194,24.5526628 C83.3300306,24.0040605 84.4929718,23.7297634 85.7700526,23.7297634 C86.9927895,23.7297634 87.9302071,23.995913 88.5823335,24.5282203 C89.2344598,25.0605275 89.5605181,25.8698396 89.5605181,26.9561809 L89.5605181,33.0260826 L87.8242404,33.0260826 Z M87.0906019,28.8056677 L86.1287203,28.8382578 C85.4059469,28.8599846 84.8679507,28.9903436 84.5147156,29.2293387 C84.1614805,29.4683338 83.9848656,29.8322527 83.9848656,30.3211063 C83.9848656,31.0217964 84.3870042,31.3721362 85.1912933,31.3721362 C85.7673383,31.3721362 86.2278956,31.2064717 86.5729792,30.8751376 C86.9180627,30.5438035 87.0906019,30.1038418 87.0906019,29.5552395 L87.0906019,28.8056677 Z M95.8208999,33.189033 C92.9841502,33.189033 91.5657966,31.6328724 91.5657966,28.5205046 C91.5657966,26.9724682 91.9516323,25.7897319 92.7233152,24.9722601 C93.494998,24.1547882 94.600879,23.7460584 96.0409914,23.7460584 C97.0952624,23.7460584 98.0408314,23.9524602 98.8777269,24.3652699 L98.1440884,26.2880844 C97.7528126,26.1305649 97.3887142,26.0015638 97.0517822,25.9010772 C96.7148503,25.8005907 96.3779234,25.7503481 96.0409914,25.7503481 C94.7476075,25.7503481 94.1009252,26.6682927 94.1009252,28.5042095 C94.1009252,30.2858093 94.7476075,31.1765958 96.0409914,31.1765958 C96.5192174,31.1765958 96.9621133,31.1127742 97.3696922,30.9851291 C97.7772712,30.857484 98.1848441,30.6578718 98.5924231,30.3862864 L98.5924231,32.5127889 C98.1902785,32.7680791 97.7840642,32.9446069 97.373768,33.0423776 C96.9634718,33.1401483 96.4458543,33.189033 95.8208999,33.189033 Z M103.092072,28.072391 L104.176227,26.6873128 L106.727659,23.9171563 L109.531788,23.9171563 L105.912505,27.8687031 L109.75188,33.0260826 L106.882538,33.0260826 L104.257743,29.3352565 L103.189891,30.190746 L103.189891,33.0260826 L100.703672,33.0260826 L100.703672,20.348543 L103.189891,20.348543 L103.189891,26.0029212 L103.059466,28.072391 L103.092072,28.072391 Z" id="path-1"></path>
        <path d="M113.737982,33.0260826 L111.251763,33.0260826 L111.251763,21.1144098 L118.082752,21.1144098 L118.082752,23.1838796 L113.737982,23.1838796 L113.737982,26.2554943 L117.781145,26.2554943 L117.781145,28.3168166 L113.737982,28.3168166 L113.737982,33.0260826 Z M123.992618,25.5140701 C123.465482,25.5140701 123.052475,25.6810925 122.753584,26.0151425 C122.454693,26.3491924 122.283512,26.8231017 122.240037,27.4368846 L125.728896,27.4368846 C125.718027,26.8231017 125.557715,26.3491924 125.247955,26.0151425 C124.938195,25.6810925 124.519753,25.5140701 123.992618,25.5140701 Z M124.343134,33.189033 C122.87585,33.189033 121.729211,32.7843769 120.903185,31.9750526 C120.077158,31.1657284 119.664151,30.0196555 119.664151,28.5367996 C119.664151,27.0104901 120.045911,25.8304696 120.809442,24.9967026 C121.572973,24.1629357 122.628587,23.7460584 123.976315,23.7460584 C125.264264,23.7460584 126.266894,24.1126931 126.984233,24.8459735 C127.701572,25.5792539 128.060236,26.592252 128.060236,27.8849981 L128.060236,29.0908309 L122.182976,29.0908309 C122.210148,29.7969528 122.419369,30.3482627 122.810645,30.7447773 C123.201921,31.1412918 123.750785,31.3395462 124.457256,31.3395462 C125.006129,31.3395462 125.525105,31.2825141 126.014199,31.1684483 C126.503294,31.0543824 127.014119,30.872423 127.546689,30.6225645 L127.546689,32.545379 C127.111938,32.7626472 126.647305,32.9242381 126.152776,33.0301563 C125.658246,33.1360746 125.055039,33.189033 124.343134,33.189033 Z M136.440018,30.3211063 C136.440018,31.2553598 136.115318,31.9669027 135.465909,32.4557563 C134.816499,32.9446098 133.845117,33.189033 132.551734,33.189033 C131.888738,33.189033 131.323571,33.1442221 130.856213,33.0545989 C130.388856,32.9649757 129.951395,32.8332588 129.543816,32.6594442 L129.543816,30.6062694 C130.005739,30.8235377 130.526073,31.0054971 131.104835,31.1521532 C131.683598,31.2988093 132.193064,31.3721362 132.633249,31.3721362 C133.535357,31.3721362 133.986404,31.1114182 133.986404,30.5899744 C133.986404,30.394433 133.926627,30.2355579 133.807071,30.1133445 C133.687514,29.9911311 133.48101,29.8526247 133.187554,29.6978211 C132.894097,29.5430174 132.502827,29.3624159 132.013732,29.1560111 C131.312696,28.8626989 130.797796,28.5911177 130.469015,28.3412592 C130.140235,28.0914007 129.901126,27.8048824 129.75168,27.4816959 C129.602234,27.1585094 129.527513,26.7606428 129.527513,26.2880844 C129.527513,25.4787601 129.841344,24.8527653 130.469015,24.4100812 C131.096687,23.9673972 131.986554,23.7460584 133.138644,23.7460584 C134.23639,23.7460584 135.304231,23.9850499 136.342199,24.4630401 L135.592257,26.2554943 C135.135769,26.0599529 134.709176,25.8997199 134.312466,25.7747907 C133.915756,25.6498614 133.5109,25.5873977 133.097887,25.5873977 C132.364244,25.5873977 131.997429,25.7856521 131.997429,26.1821666 C131.997429,26.4048666 132.115625,26.5976893 132.352021,26.7606405 C132.588417,26.9235917 133.106034,27.165299 133.904889,27.4857697 C134.616794,27.7736501 135.138487,28.0425156 135.469984,28.292374 C135.801482,28.5422325 136.046026,28.8301087 136.203623,29.1560111 C136.36122,29.4819135 136.440018,29.8702746 136.440018,30.3211063 Z M142.219459,31.2091859 C142.654209,31.2091859 143.175903,31.1141324 143.784554,30.9240227 L143.784554,32.7735095 C143.165034,33.0505265 142.404231,33.189033 141.502123,33.189033 C140.50763,33.189033 139.783509,32.9378203 139.329738,32.4353875 C138.875967,31.9329546 138.649085,31.1793166 138.649085,30.1744509 L138.649085,25.7829382 L137.45896,25.7829382 L137.45896,24.7319082 L138.828418,23.9008613 L139.545754,21.9780468 L141.135304,21.9780468 L141.135304,23.9171563 L143.686735,23.9171563 L143.686735,25.7829382 L141.135304,25.7829382 L141.135304,30.1744509 C141.135304,30.5275119 141.23448,30.7882299 141.432835,30.9566128 C141.63119,31.1249957 141.893395,31.2091859 142.219459,31.2091859 Z" id="path-2"></path>
    </defs>
    <g id="icons/general/logo-color" stroke="none" stroke-width="1" fill="none" fill-rule="evenodd">
        <g>
            <g id="HackFest" fill-rule="evenodd">
                <use fill="#009BFF" xlink:href="#path-1"></use>
                <use fill="#6743DF" xlink:href="#path-1"></use>
            </g>
            <g id="HackFest-Copy" fill-rule="evenodd">
                <use fill="#6E23F5" xlink:href="#path-2"></use>
                <use fill="#009BFF" xlink:href="#path-2"></use>
            </g>
            <path d="M73.5547205,41.4575675 C73.5547205,42.1969586 73.3713127,42.7652424 73.0044917,43.1624359 C72.6376706,43.5596294 72.1119016,43.7582232 71.4271689,43.7582232 C70.7424362,43.7582232 70.2166672,43.5596294 69.8498462,43.1624359 C69.4830251,42.7652424 69.2996173,42.1949217 69.2996173,41.4514569 C69.2996173,40.7079921 69.4835345,40.1402175 69.8513746,39.7481162 C70.2192146,39.3560149 70.746512,39.1599672 71.4332826,39.1599672 C72.1200531,39.1599672 72.6453127,39.3575425 73.0090769,39.7526992 C73.3728411,40.1478558 73.5547205,40.7161396 73.5547205,41.4575675 Z M70.2930861,41.4575675 C70.2930861,41.9566056 70.3878468,42.3324061 70.577371,42.5849805 C70.7668952,42.8375548 71.0501584,42.9638401 71.4271689,42.9638401 C72.1832279,42.9638401 72.5612517,42.4617543 72.5612517,41.4575675 C72.5612517,40.4513439 72.1852658,39.9482396 71.4332826,39.9482396 C71.056272,39.9482396 70.7719899,40.0750341 70.5804278,40.3286269 C70.3888657,40.5822197 70.2930861,40.9585295 70.2930861,41.4575675 Z M78.1888703,41.4209037 C78.1888703,42.156221 77.9794798,42.7194126 77.5606924,43.1104955 C77.141905,43.5015783 76.5371687,43.6971168 75.7464655,43.6971168 L74.4809391,43.6971168 L74.4809391,39.2302395 L75.8840227,39.2302395 C76.6135891,39.2302395 77.1801154,39.4227227 77.5836186,39.8076949 C77.9871217,40.1926671 78.1888703,40.730398 78.1888703,41.4209037 Z M77.204572,41.4453463 C77.204572,40.4859711 76.7806962,40.0062907 75.932932,40.0062907 L75.4285555,40.0062907 L75.4285555,42.914955 L75.8351135,42.914955 C76.7480904,42.914955 77.204572,42.4250903 77.204572,41.4453463 Z M81.6889373,43.6971168 L79.1150889,43.6971168 L79.1150889,39.2302395 L81.6889373,39.2302395 L81.6889373,40.0062907 L80.0627053,40.0062907 L80.0627053,40.9870483 L81.5758347,40.9870483 L81.5758347,41.7630995 L80.0627053,41.7630995 L80.0627053,42.914955 L81.6889373,42.914955 L81.6889373,43.6971168 Z M85.2593112,42.4566571 C85.2593112,42.8599613 85.1141134,43.1777113 84.8237134,43.4099168 C84.5333134,43.6421222 84.1293068,43.7582232 83.6116815,43.7582232 C83.1348141,43.7582232 82.7129762,43.6686014 82.3461551,43.4893551 L82.3461551,42.609423 C82.6477635,42.7438578 82.903006,42.8385717 83.1118903,42.8935678 C83.3207745,42.9485638 83.5118243,42.9760614 83.6850453,42.9760614 C83.8929106,42.9760614 84.0523735,42.9363426 84.1634388,42.8569039 C84.274504,42.7774652 84.3300358,42.6593274 84.3300358,42.5024869 C84.3300358,42.4149006 84.3055815,42.3369907 84.256672,42.2687549 C84.2077625,42.2005191 84.1359278,42.1348304 84.0411657,42.0716868 C83.9464036,42.0085432 83.7533159,41.9077187 83.4618969,41.7692101 C83.188819,41.6408861 82.9840137,41.5176561 82.8474747,41.3995165 C82.7109358,41.2813769 82.60191,41.1438888 82.5203942,40.9870483 C82.4388784,40.8302078 82.3981211,40.6468905 82.3981211,40.4370908 C82.3981211,40.0419341 82.5321107,39.7313131 82.8000939,39.5052183 C83.0680771,39.2791235 83.4384589,39.1660778 83.9112505,39.1660778 C84.1435705,39.1660778 84.3651883,39.1935754 84.5761104,39.2485715 C84.7870325,39.3035675 85.0076313,39.3809681 85.2379135,39.4807757 L84.9322308,40.2171078 C84.6937971,40.1193371 84.4966337,40.0511023 84.3407347,40.0124014 C84.1848358,39.9737005 84.0314865,39.9543503 83.8806823,39.9543503 C83.7013475,39.9543503 83.5637917,39.9961059 83.4680106,40.0796184 C83.3722295,40.1631309 83.3243397,40.2721029 83.3243397,40.4065376 C83.3243397,40.4900501 83.3436994,40.5628678 83.3824194,40.6249929 C83.4211394,40.6871181 83.4827848,40.7472054 83.5673575,40.8052568 C83.6519301,40.8633082 83.8521503,40.9676972 84.168024,41.1184271 C84.5857924,41.3180423 84.8721124,41.5181637 85.0269924,41.7187974 C85.1818724,41.919431 85.2593112,42.1653818 85.2593112,42.4566571 Z M88.7074121,42.4566571 C88.7074121,42.8599613 88.5622143,43.1777113 88.2718143,43.4099168 C87.9814143,43.6421222 87.5774077,43.7582232 87.0597824,43.7582232 C86.582915,43.7582232 86.1610771,43.6686014 85.794256,43.4893551 L85.794256,42.609423 C86.0958644,42.7438578 86.3511069,42.8385717 86.5599911,42.8935678 C86.7688754,42.9485638 86.9599252,42.9760614 87.1331462,42.9760614 C87.3410115,42.9760614 87.5004744,42.9363426 87.6115396,42.8569039 C87.7226049,42.7774652 87.7781367,42.6593274 87.7781367,42.5024869 C87.7781367,42.4149006 87.7536824,42.3369907 87.7047729,42.2687549 C87.6558634,42.2005191 87.5840287,42.1348304 87.4892666,42.0716868 C87.3945045,42.0085432 87.2014168,41.9077187 86.9099978,41.7692101 C86.6369199,41.6408861 86.4321146,41.5176561 86.2955756,41.3995165 C86.1590367,41.2813769 86.0500109,41.1438888 85.9684951,40.9870483 C85.8869793,40.8302078 85.846222,40.6468905 85.846222,40.4370908 C85.846222,40.0419341 85.9802116,39.7313131 86.2481948,39.5052183 C86.516178,39.2791235 86.8865598,39.1660778 87.3593514,39.1660778 C87.5916714,39.1660778 87.8132892,39.1935754 88.0242113,39.2485715 C88.2351334,39.3035675 88.4557322,39.3809681 88.6860144,39.4807757 L88.3803316,40.2171078 C88.1418979,40.1193371 87.9447346,40.0511023 87.7888356,40.0124014 C87.6329367,39.9737005 87.4795874,39.9543503 87.3287831,39.9543503 C87.1494484,39.9543503 87.0118926,39.9961059 86.9161115,40.0796184 C86.8203304,40.1631309 86.7724406,40.2721029 86.7724406,40.4065376 C86.7724406,40.4900501 86.7918003,40.5628678 86.8305203,40.6249929 C86.8692403,40.6871181 86.9308857,40.7472054 87.0154584,40.8052568 C87.100031,40.8633082 87.3002512,40.9676972 87.6161249,41.1184271 C88.0338933,41.3180423 88.3202133,41.5181637 88.4750933,41.7187974 C88.6299733,41.919431 88.7074121,42.1653818 88.7074121,42.4566571 Z M92.2533315,43.6971168 L91.9293078,42.6338656 L90.300019,42.6338656 L89.9759954,43.6971168 L88.9550151,43.6971168 L90.5323379,39.2119076 L91.6908753,39.2119076 L93.2743117,43.6971168 L92.2533315,43.6971168 Z M91.7031026,41.8394825 C91.4035321,40.8760336 91.2348988,40.3311737 91.1971978,40.2048865 C91.1594967,40.0785993 91.132495,39.9787932 91.1161918,39.9054652 C91.0489413,40.1661871 90.8563631,40.8108531 90.5384515,41.8394825 L91.7031026,41.8394825 Z" id="Odessa-Blockchain" fill="#B8B8B8" fill-rule="evenodd"></path>
            <path d="M98.8235294,39.2302395 L100.214386,39.2302395 C100.848171,39.2302395 101.308219,39.3203706 101.594543,39.5006353 C101.880867,39.6809001 102.024027,39.967588 102.024027,40.3607078 C102.024027,40.6275404 101.961363,40.8465028 101.836032,41.0176015 C101.710702,41.1887003 101.544107,41.2915617 101.336241,41.3261888 L101.336241,41.356742 C101.619509,41.4198856 101.823805,41.5380234 101.949135,41.7111591 C102.074466,41.8842947 102.13713,42.1144598 102.13713,42.4016613 C102.13713,42.8090393 101.989894,43.1267894 101.695418,43.354921 C101.400943,43.5830527 101.001012,43.6971168 100.495614,43.6971168 L98.8235294,43.6971168 L98.8235294,39.2302395 Z M99.7711458,40.9992696 L100.321375,40.9992696 C100.578149,40.9992696 100.764105,40.9595508 100.879246,40.8801121 C100.994387,40.8006734 101.051956,40.669296 101.051956,40.4859759 C101.051956,40.3148771 100.989292,40.1921564 100.863961,40.1178099 C100.738631,40.0434634 100.540449,40.0062907 100.269409,40.0062907 L99.7711458,40.0062907 L99.7711458,40.9992696 Z M99.7711458,41.7508782 L99.7711458,42.914955 L100.388625,42.914955 C100.649475,42.914955 100.842054,42.8650519 100.966365,42.7652443 C101.090677,42.6654367 101.152832,42.5126723 101.152832,42.3069464 C101.152832,41.9362324 100.887909,41.7508782 100.358057,41.7508782 L99.7711458,41.7508782 Z M103.029723,43.6971168 L103.029723,39.2302395 L103.97734,39.2302395 L103.97734,42.914955 L105.790038,42.914955 L105.790038,43.6971168 L103.029723,43.6971168 Z M110.622882,41.4575675 C110.622882,42.1969586 110.439474,42.7652424 110.072653,43.1624359 C109.705832,43.5596294 109.180063,43.7582232 108.49533,43.7582232 C107.810597,43.7582232 107.284828,43.5596294 106.918007,43.1624359 C106.551186,42.7652424 106.367779,42.1949217 106.367779,41.4514569 C106.367779,40.7079921 106.551696,40.1402175 106.919536,39.7481162 C107.287376,39.3560149 107.814673,39.1599672 108.501444,39.1599672 C109.188214,39.1599672 109.713474,39.3575425 110.077238,39.7526992 C110.441002,40.1478558 110.622882,40.7161396 110.622882,41.4575675 Z M107.361247,41.4575675 C107.361247,41.9566056 107.456008,42.3324061 107.645532,42.5849805 C107.835056,42.8375548 108.11832,42.9638401 108.49533,42.9638401 C109.251389,42.9638401 109.629413,42.4617543 109.629413,41.4575675 C109.629413,40.4513439 109.253427,39.9482396 108.501444,39.9482396 C108.124433,39.9482396 107.840151,40.0750341 107.648589,40.3286269 C107.457027,40.5822197 107.361247,40.9585295 107.361247,41.4575675 Z M113.44739,39.9543503 C113.090758,39.9543503 112.814628,40.0882738 112.61899,40.3561248 C112.423352,40.6239758 112.325534,40.9972303 112.325534,41.4758995 C112.325534,42.4719386 112.699483,42.9699508 113.44739,42.9699508 C113.761226,42.9699508 114.141287,42.8915317 114.587586,42.7346911 L114.587586,43.5290742 C114.220765,43.681841 113.811155,43.7582232 113.358742,43.7582232 C112.708653,43.7582232 112.211415,43.5611571 111.86701,43.1670189 C111.522606,42.7728807 111.350407,42.207143 111.350407,41.4697888 C111.350407,41.0053779 111.434978,40.5985153 111.604123,40.2491886 C111.773269,39.899862 112.016284,39.632015 112.333176,39.4456396 C112.650069,39.2592641 113.02147,39.1660778 113.44739,39.1660778 C113.881462,39.1660778 114.317565,39.2709761 114.755712,39.4807757 L114.450029,40.2507163 C114.282922,40.1712776 114.114798,40.1020244 113.945653,40.0429546 C113.776507,39.9838847 113.610422,39.9543503 113.44739,39.9543503 Z M119.133088,43.6971168 L118.057085,43.6971168 L116.88632,41.8150399 L116.485876,42.10224 L116.485876,43.6971168 L115.53826,43.6971168 L115.53826,39.2302395 L116.485876,39.2302395 L116.485876,41.2742484 L116.858809,40.7487334 L118.069312,39.2302395 L119.120861,39.2302395 L117.561879,41.2070313 L119.133088,43.6971168 Z M121.593834,39.9543503 C121.237202,39.9543503 120.961072,40.0882738 120.765434,40.3561248 C120.569796,40.6239758 120.471978,40.9972303 120.471978,41.4758995 C120.471978,42.4719386 120.845927,42.9699508 121.593834,42.9699508 C121.90767,42.9699508 122.287732,42.8915317 122.73403,42.7346911 L122.73403,43.5290742 C122.367209,43.681841 121.957599,43.7582232 121.505186,43.7582232 C120.855098,43.7582232 120.357859,43.5611571 120.013454,43.1670189 C119.66905,42.7728807 119.496851,42.207143 119.496851,41.4697888 C119.496851,41.0053779 119.581422,40.5985153 119.750567,40.2491886 C119.919713,39.899862 120.162728,39.632015 120.479621,39.4456396 C120.796513,39.2592641 121.167914,39.1660778 121.593834,39.1660778 C122.027906,39.1660778 122.464009,39.2709761 122.902156,39.4807757 L122.596473,40.2507163 C122.429366,40.1712776 122.261242,40.1020244 122.092097,40.0429546 C121.922952,39.9838847 121.756866,39.9543503 121.593834,39.9543503 Z M127.346782,43.6971168 L126.402223,43.6971168 L126.402223,41.7692101 L124.63232,41.7692101 L124.63232,43.6971168 L123.684704,43.6971168 L123.684704,39.2302395 L124.63232,39.2302395 L124.63232,40.9809377 L126.402223,40.9809377 L126.402223,39.2302395 L127.346782,39.2302395 L127.346782,43.6971168 Z M131.210612,43.6971168 L130.886588,42.6338656 L129.257299,42.6338656 L128.933276,43.6971168 L127.912295,43.6971168 L129.489618,39.2119076 L130.648156,39.2119076 L132.231592,43.6971168 L131.210612,43.6971168 Z M130.660383,41.8394825 C130.360812,40.8760336 130.192179,40.3311737 130.154478,40.2048865 C130.116777,40.0785993 130.089775,39.9787932 130.073472,39.9054652 C130.006222,40.1661871 129.813643,40.8108531 129.495732,41.8394825 L130.660383,41.8394825 Z M132.794048,43.6971168 L132.794048,39.2302395 L133.741665,39.2302395 L133.741665,43.6971168 L132.794048,43.6971168 Z M138.831282,43.6971168 L137.626892,43.6971168 L135.68275,40.3179333 L135.655238,40.3179333 C135.693958,40.9147421 135.713318,41.3404457 135.713318,41.5950569 L135.713318,43.6971168 L134.866577,43.6971168 L134.866577,39.2302395 L136.061796,39.2302395 L138.002882,42.5758145 L138.024279,42.5758145 C137.993711,41.9953009 137.978427,41.5848737 137.978427,41.3445207 L137.978427,39.2302395 L138.831282,39.2302395 L138.831282,43.6971168 Z" id="Odessa-Blockchain-Copy-8" fill="#BBBBBB" fill-rule="evenodd"></path>
            <path d="M95.7411965,42.246626 L95.1289204,41.8896553 C95.1088272,41.8779405 95.0964706,41.8564329 95.0964706,41.8331742 L95.0964706,41.1181299 C95.0964706,41.0948713 95.1088271,41.0733638 95.12892,41.061649 L95.7411876,40.7046785 C95.7615379,40.6928137 95.7866974,40.6928137 95.8070477,40.7046785 L96.4193153,41.061649 C96.4394082,41.0733638 96.4517647,41.0948713 96.4517647,41.1181299 L96.4517647,41.8331747 C96.4517647,41.8564332 96.4394084,41.8779406 96.4193156,41.8896554 L95.8070566,42.2466256 C95.7867064,42.2584906 95.7615468,42.2584907 95.7411965,42.246626 Z" id="Combined-Shape-Copy-50" fill="#BBBBBB" fill-rule="evenodd"></path>
            <path d="M28.5000408,52.5788312 C25.9157093,45.6738803 24.8688124,38.2610552 25.3575529,30.3498 C25.3705412,30.1451913 25.3880471,29.9298435 25.4055529,29.7150609 C26.1396706,30.0474087 26.8715294,30.3944522 27.5988706,30.7658 C27.1597804,38.4412953 28.2241639,45.6024733 30.7953913,52.2575266 L34.7864471,54.5336435 C34.8918358,54.5937634 34.9885237,54.6650915 35.0753594,54.7456467 L50.8235294,46.3145771 L50.8235294,47.1377739 L52.3978674,48.0356968 L35.5764706,57.041338 L35.5764706,60.5413391 C35.5764706,61.1042957 35.2749176,61.6237304 34.7864471,61.9023826 L30.7047529,64.230513 C30.2236235,64.5046435 29.6352,64.5046435 29.1546353,64.230513 L25.0723765,61.9023826 C24.5839059,61.6237304 24.2823529,61.1042957 24.2823529,60.5413391 L24.2823529,57.041338 L7.46025845,48.0353233 L9.03529412,47.1372652 L9.03529412,46.3145771 L24.7834641,54.7456467 C24.8702998,54.6650915 24.9669877,54.5937634 25.0723765,54.5336435 L28.5000408,52.5788312 Z M31.4350672,11.813954 C30.1761068,16.4540856 29.2254423,20.4192669 28.5816282,23.7061217 C27.8785694,23.3811217 27.1726871,23.0736435 26.4639812,22.7797304 C27.0718214,19.753695 27.9176209,16.2136573 29.0059995,12.1457454 L25.7620141,10.295686 L9.03529412,19.2506403 L9.03529412,17.2982522 L8.48218542,16.9827869 L24.2823529,8.5238794 L24.2823529,3.89468696 C24.2823529,3.33229565 24.5839059,2.81229565 25.0723765,2.53364348 L29.1546353,0.205513043 C29.6352,-0.0686173913 30.2236235,-0.0686173913 30.7041882,0.205513043 L34.7864471,2.53364348 C35.2749176,2.81229565 35.5764706,3.33229565 35.5764706,3.89468696 L35.5764706,8.5238794 L51.3772839,16.9831327 L50.8235294,17.2988739 L50.8235294,19.2506403 L34.0968586,10.2957124 L31.4350672,11.813954 Z M4.51764706,42.0109319 L4.51764706,22.4260928 L5.64705882,23.0702522 L6.77647059,22.4260928 L6.77647059,42.0109319 L5.64705882,41.3669609 L4.51764706,42.0109319 Z M55.3411765,22.4252072 L55.3411765,42.0099333 L54.2117647,41.3657739 L53.0823529,42.0099333 L53.0823529,22.4252072 L54.2117647,23.0691783 L55.3411765,22.4252072 Z M33.3176471,60.1377739 L33.3176471,56.2982522 L29.9294118,54.3657739 L26.5411765,56.2982522 L26.5411765,60.1377739 L29.9294118,62.0702522 L33.3176471,60.1377739 Z M33.3176471,8.13777391 L33.3176471,4.29825217 L29.9294118,2.36577391 L26.5411765,4.29825217 L26.5411765,8.13777391 L29.9294118,10.0702522 L33.3176471,8.13777391 Z" id="Combined-Shape" fill="#6743DF" fill-rule="nonzero"></path>
            <path d="M9.03529412,21.1377739 L5.64705882,23.0702522 L2.25882353,21.1377739 L2.25882353,17.2982522 L5.64705882,15.3657739 L9.03529412,17.2982522 L9.03529412,21.1377739 Z M11.2941176,21.2141515 C19.4272264,22.0594929 27.276487,24.9051818 34.7707482,29.7043783 C34.0541365,30.1503348 33.3211482,30.5799 32.5734776,30.9964652 C25.2619792,26.5063906 17.6249751,23.9406279 9.73125504,23.3431972 L6.4224,25.230513 C5.94127059,25.5046435 5.35284706,25.5046435 4.87228235,25.230513 L0.790023529,22.9023826 C0.301552941,22.6237304 0,22.1042957 0,21.5413391 L0,16.894687 C0,16.3317304 0.301552941,15.8122957 0.790023529,15.5336435 L4.87228235,13.205513 C5.35284706,12.9313826 5.94127059,12.9313826 6.42183529,13.205513 L10.5040941,15.5336435 C10.9925647,15.8122957 11.2941176,16.3317304 11.2941176,16.894687 L11.2941176,21.2141515 Z M48.5647059,44.5455581 L47.7427765,43.5776391 C44.7933176,40.4457696 41.7727059,37.6722478 38.6871529,35.2565087 C39.3597176,34.8303348 40.0215529,34.393987 40.6692706,33.9452043 C43.5371967,36.2379203 46.3474568,38.8270983 49.0955048,41.7188052 C49.1745238,41.6491802 49.2612002,41.586998 49.3547294,41.5336435 L53.4369882,39.205513 C53.9175529,38.9313826 54.5059765,38.9313826 54.9865412,39.205513 L59.0688,41.5336435 C59.5572706,41.8122957 59.8588235,42.3317304 59.8588235,42.894687 L59.8588235,47.5413391 C59.8588235,48.1042957 59.5572706,48.6237304 59.0688,48.9023826 L54.9871059,51.230513 C54.5059765,51.5046435 53.9175529,51.5046435 53.4369882,51.230513 L49.3547294,48.9023826 C48.8662588,48.6237304 48.5647059,48.1042957 48.5647059,47.5413391 L48.5647059,44.5455581 Z M11.2909765,42.7964748 C11.2930627,42.8294302 11.2941176,42.8625769 11.2941176,42.8958739 L11.2941176,47.5402652 C11.2941176,48.1032217 10.9925647,48.6232217 10.5035294,48.9018739 L6.42183529,51.2294391 C5.94127059,51.5035696 5.35284706,51.5035696 4.87228235,51.2294391 L0.790588235,48.9018739 C0.301552941,48.6232217 0,48.1032217 0,47.5402652 L0,42.8958739 C0,42.3329174 0.301552941,41.8129174 0.790588235,41.5342652 L4.87228235,39.2067 C5.35284706,38.9325696 5.94127059,38.9325696 6.42183529,39.2067 L9.17920156,40.779074 L10.5756424,40.6233043 C15.03456,39.891913 19.2020894,38.8666087 23.08896,37.5683043 C23.1352659,38.35 23.1985129,39.1260435 23.2758776,39.8975652 C19.5307172,41.1156116 15.5352329,42.0836405 11.2909765,42.7964748 Z M49.430537,22.9447808 C44.3076039,29.0483654 37.7578515,33.859825 29.8670118,37.3645435 C29.8161882,36.5591087 29.784,35.7480217 29.7704471,34.9301522 C37.4290387,31.3923026 43.7212678,26.551548 48.5647059,20.4303382 L48.5647059,16.8958739 C48.5647059,16.3329174 48.8662588,15.8129174 49.3552941,15.5342652 L53.4369882,13.2067 C53.9175529,12.9325696 54.5059765,12.9325696 54.9865412,13.2067 L59.0682353,15.5342652 C59.5572706,15.8129174 59.8588235,16.3329174 59.8588235,16.8958739 L59.8588235,21.5402652 C59.8588235,22.1032217 59.5572706,22.6232217 59.0682353,22.9018739 L54.9865412,25.2294391 C54.5059765,25.5035696 53.9175529,25.5035696 53.4369882,25.2294391 L49.430537,22.9447808 Z M57.6,21.1372652 L57.6,17.2988739 L54.2117647,15.3669609 L50.8235294,17.2988739 L50.8235294,21.1372652 L54.2117647,23.0691783 L57.6,21.1372652 Z M9.03529412,47.1372652 L9.03529412,43.2988739 L5.64705882,41.3669609 L2.25882353,43.2988739 L2.25882353,47.1372652 L5.64705882,49.0691783 L9.03529412,47.1372652 Z M57.6,47.1377739 L57.6,43.2982522 L54.2117647,41.3657739 L50.8235294,43.2982522 L50.8235294,47.1377739 L54.2117647,49.0702522 L57.6,47.1377739 Z" id="Combined-Shape" fill="#009BFF" fill-rule="evenodd"></path>
        </g>
    </g>
</svg>