<?xml version="1.0" encoding="UTF-8"?>
<svg width="568px" height="544px" viewBox="0 0 568 544" version="1.1" xmlns="http://www.w3.org/2000/svg" xmlns:xlink="http://www.w3.org/1999/xlink">
    <!-- Generator: Sketch 51.2 (57519) - http://www.bohemiancoding.com/sketch -->
    <title>icons/general/pattern-participants with numbers</title>
    <desc>Created with Sketch.</desc>
    <defs>
        <linearGradient x1="24.8149867%" y1="0%" x2="78.1728079%" y2="88.5254282%" id="linearGradient-1">
            <stop stop-color="#7B31EC" offset="0%"></stop>
            <stop stop-color="#DA2674" offset="100%"></stop>
        </linearGradient>
        <linearGradient x1="78.1728079%" y1="88.5254282%" x2="24.8149867%" y2="9.71445147e-15%" id="linearGradient-2">
            <stop stop-color="#7B31EC" offset="0%"></stop>
            <stop stop-color="#DA2674" offset="100%"></stop>
        </linearGradient>
        <linearGradient x1="95.7566114%" y1="17.5838035%" x2="7.23118314%" y2="70.9416247%" id="linearGradient-3">
            <stop stop-color="#7B31EC" offset="0%"></stop>
            <stop stop-color="#DA2674" offset="100%"></stop>
        </linearGradient>
    </defs>
    <g id="icons/general/pattern-participants-with-numbers" stroke="none" stroke-width="1" fill="none" fill-rule="evenodd">
        <g id="Group">
            <g>
                <g>
                    <path d="M82.6329254,146.995895 L119.669312,433.44643 L180.421211,209.27578 L82.6329254,146.995895 Z M181.578789,208.827434 L119.321311,438.55357 L81.3670746,145.004105 L181.578789,208.827434 Z" id="Path-2" fill="#C864B4" fill-rule="nonzero" opacity="0.200000003"></path>
                    <path d="M309.84981,211.563334 L110.865856,119.252097 L486.948925,108.443783 L309.84981,211.563334 Z M483.051075,109.556217 L115.134144,120.129843 L309.797429,210.436666 L483.051075,109.556217 Z" id="Path-3" fill="#C864B4" fill-rule="nonzero" opacity="0.200000003"></path>
                    <polygon id="Path-5" fill="#C864B4" fill-rule="nonzero" opacity="0.200000003" points="502.41369 430.583054 483.213759 112.030082 503.58631 433.416946 482.616561 409.722314 80.7251827 145.307584 480.080588 406.856807 308.437609 212.909935 486.590149 412.33664"></polygon>
                    <path d="M234.501602,279.919729 L99.5044711,462.098908 L78.2972756,163.787725 L66.7999986,155.239935 L77.8683775,157.754626 L75.178444,119.916655 L142.772295,172.500536 L289.41291,205.816694 L251.451248,257.046112 L257.298527,261.594936 L334.897907,181.537269 L383.820424,261.774712 L306.770336,333.648796 L234.501602,279.919729 Z M78.2972756,163.787725 L77.8683775,157.754626 L142.772295,172.500536 L251.451248,257.046112 L234.501602,279.919729 L78.2972756,163.787725 Z M79.2622142,163.259032 L234.294459,278.519637 L250.066209,257.235596 L142.33384,173.426405 L78.9614588,159.028454 L79.2622142,163.259032 Z M147.544515,482.178284 L432.382709,427.03684 L306.770336,333.648796 L147.544515,482.178284 Z M463.033441,391.69137 L533.082685,122.539461 L383.820424,261.774712 L463.033441,391.69137 Z M71.2000014,157.265082 L79.2622142,163.259032 L100.310281,459.331833 L234.294459,278.519637 L306.697885,332.348843 L382.542321,261.599418 L334.716707,183.160997 L257.392374,262.934904 L250.066209,257.235596 L287.697228,206.452383 L142.33384,173.426405 L76.3349996,122.083345 L78.9614588,159.028454 L71.2000014,157.265082 Z M534.917315,119.460539 L463.407256,394.225373 L382.542321,261.599418 L534.917315,119.460539 Z M434.799498,427.587543 L144.316711,483.821716 L306.697885,332.348843 L434.799498,427.587543 Z" id="Path-7" fill="#C864B4" fill-rule="nonzero" opacity="0.200000003"></path>
                    <circle id="Oval" fill="#C864B4" fill-rule="nonzero" cx="180" cy="209" r="5"></circle>
                    <circle id="Oval-Copy" fill="#C864B4" fill-rule="nonzero" cx="127.5" cy="174.5" r="3.5"></circle>
                    <circle id="Oval-Copy-6" fill="#C864B4" fill-rule="nonzero" cx="100.5" cy="198.5" r="2.5"></circle>
                    <circle id="Oval-Copy-7" fill="#C864B4" fill-rule="nonzero" cx="259" cy="312" r="3"></circle>
                    <circle id="Oval-Copy-8" fill="#C864B4" fill-rule="nonzero" cx="189.5" cy="261.5" r="2.5"></circle>
                    <circle id="Oval-Copy-9" fill="#C864B4" fill-rule="nonzero" cx="410.5" cy="258.5" r="2.5"></circle>
                    <circle id="Oval-Copy-10" fill="#C864B4" fill-rule="nonzero" cx="470.5" cy="226.5" r="2.5"></circle>
                    <circle id="Oval-Copy-2" fill="#C864B4" fill-rule="nonzero" cx="384.5" cy="199.5" r="3.5"></circle>
                    <circle id="Oval-Copy-3" fill="#C864B4" fill-rule="nonzero" cx="394.5" cy="161.5" r="1.5"></circle>
                    <circle id="Oval-Copy-4" fill="#C864B4" fill-rule="nonzero" cx="307.5" cy="268.5" r="3.5"></circle>
                    <circle id="Oval-Copy-5" fill="#C864B4" fill-rule="nonzero" cx="268.5" cy="266.5" r="1.5"></circle>
                    <g id="circle" transform="translate(0.000000, 45.000000)">
                        <ellipse id="thick" fill="#FFFFFF" cx="70.5" cy="70" rx="70.5" ry="70"></ellipse>
                        <path d="M70.5,133.824818 C106.035416,133.824818 134.824818,105.239596 134.824818,70 C134.824818,34.7604041 106.035416,6.17518248 70.5,6.17518248 C34.9645842,6.17518248 6.17518248,34.7604041 6.17518248,70 C6.17518248,105.239596 34.9645842,133.824818 70.5,133.824818 Z M70.5,140 C31.5639251,140 0,108.659932 0,70 C0,31.3400675 31.5639251,0 70.5,0 C109.436075,0 141,31.3400675 141,70 C141,108.659932 109.436075,140 70.5,140 Z" id="thick-copy" fill="url(#linearGradient-1)" fill-rule="nonzero"></path>
                    </g>
                    <g id="circle" transform="translate(39.000000, 404.000000)">
                        <ellipse id="thick" fill="#FFFFFF" cx="70.5" cy="70" rx="70.5" ry="70"></ellipse>
                        <path d="M70.5,133.844347 C106.04617,133.844347 134.844347,105.250413 134.844347,70 C134.844347,34.7495873 106.04617,6.15565345 70.5,6.15565345 C34.9538296,6.15565345 6.15565345,34.7495873 6.15565345,70 C6.15565345,105.250413 34.9538296,133.844347 70.5,133.844347 Z M70.5,140 C31.5639251,140 0,108.659932 0,70 C0,31.3400675 31.5639251,0 70.5,0 C109.436075,0 141,31.3400675 141,70 C141,108.659932 109.436075,140 70.5,140 Z" id="thick-copy-5" fill="url(#linearGradient-2)" fill-rule="nonzero"></path>
                    </g>
                    <g id="circle" transform="translate(398.000000, 341.000000)">
                        <ellipse id="thick" fill="#FFFFFF" cx="70.5" cy="70" rx="70.5" ry="70"></ellipse>
                        <path d="M70.5,133.844347 C106.04617,133.844347 134.844347,105.250413 134.844347,70 C134.844347,34.7495873 106.04617,6.15565345 70.5,6.15565345 C34.9538296,6.15565345 6.15565345,34.7495873 6.15565345,70 C6.15565345,105.250413 34.9538296,133.844347 70.5,133.844347 Z M70.5,140 C31.5639251,140 0,108.659932 0,70 C0,31.3400675 31.5639251,0 70.5,0 C109.436075,0 141,31.3400675 141,70 C141,108.659932 109.436075,140 70.5,140 Z" id="thick-copy-2" fill="url(#linearGradient-1)" fill-rule="nonzero"></path>
                    </g>
                    <g id="circle" transform="translate(235.000000, 163.000000)">
                        <ellipse id="thick" fill="#FFFFFF" cx="70.5" cy="70" rx="70.5" ry="70"></ellipse>
                        <path d="M70.5,133.844347 C106.04617,133.844347 134.844347,105.250413 134.844347,70 C134.844347,34.7495873 106.04617,6.15565345 70.5,6.15565345 C34.9538296,6.15565345 6.15565345,34.7495873 6.15565345,70 C6.15565345,105.250413 34.9538296,133.844347 70.5,133.844347 Z M70.5,140 C31.5639251,140 0,108.659932 0,70 C0,31.3400675 31.5639251,0 70.5,0 C109.436075,0 141,31.3400675 141,70 C141,108.659932 109.436075,140 70.5,140 Z" id="thick-copy-3" fill="url(#linearGradient-3)" fill-rule="nonzero"></path>
                    </g>
                    <g id="circle" transform="translate(429.000000, 0.000000)">
                        <ellipse id="thick" fill="#FFFFFF" cx="69.5" cy="70" rx="69.5" ry="70"></ellipse>
                        <path d="M69.5,133.867841 C104.487213,133.867841 132.867841,105.283036 132.867841,70 C132.867841,34.716964 104.487213,6.13215859 69.5,6.13215859 C34.5127868,6.13215859 6.13215859,34.716964 6.13215859,70 C6.13215859,105.283036 34.5127868,133.867841 69.5,133.867841 Z M69.5,140 C31.1162099,140 0,108.659932 0,70 C0,31.3400675 31.1162099,0 69.5,0 C107.88379,0 139,31.3400675 139,70 C139,108.659932 107.88379,140 69.5,140 Z" id="thick-copy-4" fill="url(#linearGradient-2)" fill-rule="nonzero"></path>
                    </g>
                    <path d="M55.5615234,106.290039 C55.5615234,108.519868 54.8860745,110.416008 53.5351562,111.978516 C52.184238,113.541023 50.2880981,114.615231 47.8466797,115.201172 L47.8466797,115.347656 C50.7275535,115.705731 52.9085212,116.580559 54.3896484,117.972168 C55.8707756,119.363776 56.6113281,121.239572 56.6113281,123.599609 C56.6113281,127.033871 55.3662234,129.707184 52.8759766,131.619629 C50.3857297,133.532073 46.8294502,134.488281 42.2070312,134.488281 C38.333314,134.488281 34.8991035,133.845384 31.9042969,132.55957 L31.9042969,126.138672 C33.2877673,126.838545 34.809562,127.408201 36.4697266,127.847656 C38.1298911,128.287112 39.7737549,128.506836 41.4013672,128.506836 C43.891614,128.506836 45.7307883,128.083663 46.9189453,127.237305 C48.1071023,126.390946 48.7011719,125.03191 48.7011719,123.160156 C48.7011719,121.483716 48.017585,120.295576 46.6503906,119.595703 C45.2831963,118.89583 43.1022285,118.545898 40.1074219,118.545898 L37.3974609,118.545898 L37.3974609,112.759766 L40.15625,112.759766 C42.9231909,112.759766 44.9454689,112.397627 46.2231445,111.67334 C47.5008202,110.949052 48.1396484,109.708017 48.1396484,107.950195 C48.1396484,105.248359 46.446957,103.897461 43.0615234,103.897461 C41.8896426,103.897461 40.6974344,104.092771 39.4848633,104.483398 C38.2722921,104.874025 36.9254631,105.549474 35.4443359,106.509766 L31.953125,101.30957 C35.2083496,98.9658086 39.0901467,97.7939453 43.5986328,97.7939453 C47.2933127,97.7939453 50.210764,98.5426357 52.3510742,100.040039 C54.4913844,101.537442 55.5615234,103.620755 55.5615234,106.290039 Z M84.0478516,116.15332 C84.0478516,122.387075 83.0265402,127.001287 80.9838867,129.996094 C78.9412333,132.9909 75.7959197,134.488281 71.5478516,134.488281 C67.4299924,134.488281 64.3253685,132.942073 62.2338867,129.849609 C60.1424049,126.757146 59.0966797,122.191762 59.0966797,116.15332 C59.0966797,109.854461 60.1139221,105.211766 62.1484375,102.225098 C64.1829529,99.2384291 67.3160596,97.7451172 71.5478516,97.7451172 C75.6657107,97.7451172 78.7784725,99.3076016 80.8862305,102.432617 C82.9939884,105.557633 84.0478516,110.131155 84.0478516,116.15332 Z M66.5917969,116.15332 C66.5917969,120.531597 66.9702111,123.668773 67.7270508,125.564941 C68.4838905,127.46111 69.757478,128.40918 71.5478516,128.40918 C73.3056729,128.40918 74.5751914,127.448903 75.3564453,125.52832 C76.1376992,123.607738 76.5283203,120.482769 76.5283203,116.15332 C76.5283203,111.775043 76.1336302,108.62973 75.3442383,106.717285 C74.5548463,104.804841 73.2893967,103.848633 71.5478516,103.848633 C69.7737542,103.848633 68.5042356,104.804841 67.7392578,106.717285 C66.97428,108.62973 66.5917969,111.775043 66.5917969,116.15332 Z M111.337891,116.15332 C111.337891,122.387075 110.316579,127.001287 108.273926,129.996094 C106.231272,132.9909 103.085959,134.488281 98.8378906,134.488281 C94.7200315,134.488281 91.6154076,132.942073 89.5239258,129.849609 C87.432444,126.757146 86.3867188,122.191762 86.3867188,116.15332 C86.3867188,109.854461 87.4039612,105.211766 89.4384766,102.225098 C91.4729919,99.2384291 94.6060986,97.7451172 98.8378906,97.7451172 C102.95575,97.7451172 106.068512,99.3076016 108.17627,102.432617 C110.284027,105.557633 111.337891,110.131155 111.337891,116.15332 Z M93.8818359,116.15332 C93.8818359,120.531597 94.2602501,123.668773 95.0170898,125.564941 C95.7739296,127.46111 97.0475171,128.40918 98.8378906,128.40918 C100.595712,128.40918 101.86523,127.448903 102.646484,125.52832 C103.427738,123.607738 103.818359,120.482769 103.818359,116.15332 C103.818359,111.775043 103.423669,108.62973 102.634277,106.717285 C101.844885,104.804841 100.579436,103.848633 98.8378906,103.848633 C97.0637932,103.848633 95.7942747,104.804841 95.0292969,106.717285 C94.2643191,108.62973 93.8818359,111.775043 93.8818359,116.15332 Z" id="300" fill="#3E3D3E"></path>
                    <path d="M102.654297,493 L95.1103516,493 L95.1103516,472.345703 L95.1835938,468.952148 L95.3056641,465.241211 C94.0524026,466.494472 93.1816431,467.316404 92.6933594,467.707031 L88.5917969,471.00293 L84.9541016,466.461914 L96.453125,457.306641 L102.654297,457.306641 L102.654297,493 Z M136.047852,475.15332 C136.047852,481.387075 135.02654,486.001287 132.983887,488.996094 C130.941233,491.9909 127.79592,493.488281 123.547852,493.488281 C119.429992,493.488281 116.325369,491.942073 114.233887,488.849609 C112.142405,485.757146 111.09668,481.191762 111.09668,475.15332 C111.09668,468.854461 112.113922,464.211766 114.148438,461.225098 C116.182953,458.238429 119.31606,456.745117 123.547852,456.745117 C127.665711,456.745117 130.778473,458.307602 132.88623,461.432617 C134.993988,464.557633 136.047852,469.131155 136.047852,475.15332 Z M118.591797,475.15332 C118.591797,479.531597 118.970211,482.668773 119.727051,484.564941 C120.483891,486.46111 121.757478,487.40918 123.547852,487.40918 C125.305673,487.40918 126.575191,486.448903 127.356445,484.52832 C128.137699,482.607738 128.52832,479.482769 128.52832,475.15332 C128.52832,470.775043 128.13363,467.62973 127.344238,465.717285 C126.554846,463.804841 125.289397,462.848633 123.547852,462.848633 C121.773754,462.848633 120.504236,463.804841 119.739258,465.717285 C118.97428,467.62973 118.591797,470.775043 118.591797,475.15332 Z" id="10" fill="#3E3D3E"></path>
                    <path d="M480.916504,402.290039 C480.916504,404.519868 480.241055,406.416008 478.890137,407.978516 C477.539219,409.541023 475.643079,410.615231 473.20166,411.201172 L473.20166,411.347656 C476.082534,411.705731 478.263502,412.580559 479.744629,413.972168 C481.225756,415.363776 481.966309,417.239572 481.966309,419.599609 C481.966309,423.033871 480.721204,425.707184 478.230957,427.619629 C475.74071,429.532073 472.184431,430.488281 467.562012,430.488281 C463.688294,430.488281 460.254084,429.845384 457.259277,428.55957 L457.259277,422.138672 C458.642748,422.838545 460.164542,423.408201 461.824707,423.847656 C463.484872,424.287112 465.128735,424.506836 466.756348,424.506836 C469.246594,424.506836 471.085769,424.083663 472.273926,423.237305 C473.462083,422.390946 474.056152,421.03191 474.056152,419.160156 C474.056152,417.483716 473.372565,416.295576 472.005371,415.595703 C470.638177,414.89583 468.457209,414.545898 465.462402,414.545898 L462.752441,414.545898 L462.752441,408.759766 L465.51123,408.759766 C468.278171,408.759766 470.300449,408.397627 471.578125,407.67334 C472.855801,406.949052 473.494629,405.708017 473.494629,403.950195 C473.494629,401.248359 471.801938,399.897461 468.416504,399.897461 C467.244623,399.897461 466.052415,400.092771 464.839844,400.483398 C463.627273,400.874025 462.280444,401.549474 460.799316,402.509766 L457.308105,397.30957 C460.56333,394.965809 464.445127,393.793945 468.953613,393.793945 C472.648293,393.793945 475.565745,394.542636 477.706055,396.040039 C479.846365,397.537442 480.916504,399.620755 480.916504,402.290039 Z" id="3" fill="#3E3D3E"></path>
                    <path d="M285.654297,252 L278.110352,252 L278.110352,231.345703 L278.183594,227.952148 L278.305664,224.241211 C277.052403,225.494472 276.181643,226.316404 275.693359,226.707031 L271.591797,230.00293 L267.954102,225.461914 L279.453125,216.306641 L285.654297,216.306641 L285.654297,252 Z M307.280273,229.197266 C310.730812,229.197266 313.477366,230.16568 315.52002,232.102539 C317.562673,234.039398 318.583984,236.692366 318.583984,240.061523 C318.583984,244.049174 317.355156,247.117177 314.897461,249.265625 C312.439766,251.414073 308.924177,252.488281 304.350586,252.488281 C300.379212,252.488281 297.172864,251.845384 294.731445,250.55957 L294.731445,244.041016 C296.017259,244.724613 297.51464,245.282062 299.223633,245.713379 C300.932626,246.144696 302.552076,246.360352 304.082031,246.360352 C308.688174,246.360352 310.991211,244.47235 310.991211,240.696289 C310.991211,237.099266 308.606795,235.300781 303.837891,235.300781 C302.975256,235.300781 302.023117,235.38623 300.981445,235.557129 C299.939773,235.728028 299.093428,235.911132 298.442383,236.106445 L295.439453,234.495117 L296.782227,216.306641 L316.142578,216.306641 L316.142578,222.703125 L303.398438,222.703125 L302.739258,229.709961 L303.59375,229.539062 C304.586594,229.311197 305.815422,229.197266 307.280273,229.197266 Z M346.337891,234.15332 C346.337891,240.387075 345.316579,245.001287 343.273926,247.996094 C341.231272,250.9909 338.085959,252.488281 333.837891,252.488281 C329.720031,252.488281 326.615408,250.942073 324.523926,247.849609 C322.432444,244.757146 321.386719,240.191762 321.386719,234.15332 C321.386719,227.854461 322.403961,223.211766 324.438477,220.225098 C326.472992,217.238429 329.606099,215.745117 333.837891,215.745117 C337.95575,215.745117 341.068512,217.307602 343.17627,220.432617 C345.284027,223.557633 346.337891,228.131155 346.337891,234.15332 Z M328.881836,234.15332 C328.881836,238.531597 329.26025,241.668773 330.01709,243.564941 C330.77393,245.46111 332.047517,246.40918 333.837891,246.40918 C335.595712,246.40918 336.86523,245.448903 337.646484,243.52832 C338.427738,241.607738 338.818359,238.482769 338.818359,234.15332 C338.818359,229.775043 338.423669,226.62973 337.634277,224.717285 C336.844885,222.804841 335.579436,221.848633 333.837891,221.848633 C332.063793,221.848633 330.794275,222.804841 330.029297,224.717285 C329.264319,226.62973 328.881836,229.775043 328.881836,234.15332 Z" id="150" fill="#3E3D3E"></path>
                    <path d="M498.953125,89 L474.001953,89 L474.001953,83.7509766 L482.961914,74.6933594 C485.614922,71.9752468 487.348303,70.0913138 488.162109,69.0415039 C488.975916,67.991694 489.561847,67.0192102 489.919922,66.1240234 C490.277997,65.2288367 490.457031,64.3011116 490.457031,63.3408203 C490.457031,61.9085215 490.062341,60.8424514 489.272949,60.1425781 C488.483557,59.4427048 487.429694,59.0927734 486.111328,59.0927734 C484.727858,59.0927734 483.385098,59.4101531 482.083008,60.0449219 C480.780918,60.6796907 479.421882,61.583002 478.005859,62.7548828 L473.904297,57.8964844 C475.662118,56.3990811 477.118809,55.3411489 478.274414,54.7226562 C479.430019,54.1041636 480.691399,53.6280941 482.058594,53.2944336 C483.425788,52.9607731 484.955721,52.7939453 486.648438,52.7939453 C488.878266,52.7939453 490.847648,53.2008423 492.556641,54.0146484 C494.265634,54.8284546 495.592118,55.9677661 496.536133,57.4326172 C497.480148,58.8974683 497.952148,60.5738838 497.952148,62.4619141 C497.952148,64.1058025 497.663252,65.647942 497.085449,67.0883789 C496.507647,68.5288158 495.612474,70.0058518 494.399902,71.5195312 C493.187331,73.0332107 491.051122,75.1897646 487.991211,77.9892578 L483.401367,82.3105469 L483.401367,82.6523438 L498.953125,82.6523438 L498.953125,89 Z M526.047852,71.1533203 C526.047852,77.3870754 525.02654,82.0012871 522.983887,84.9960938 C520.941233,87.9909004 517.79592,89.4882812 513.547852,89.4882812 C509.429992,89.4882812 506.325369,87.9420728 504.233887,84.8496094 C502.142405,81.757146 501.09668,77.191762 501.09668,71.1533203 C501.09668,64.8544607 502.113922,60.2117662 504.148438,57.2250977 C506.182953,54.2384291 509.31606,52.7451172 513.547852,52.7451172 C517.665711,52.7451172 520.778473,54.3076016 522.88623,57.4326172 C524.993988,60.5576328 526.047852,65.1311548 526.047852,71.1533203 Z M508.591797,71.1533203 C508.591797,75.5315974 508.970211,78.6687731 509.727051,80.5649414 C510.483891,82.4611097 511.757478,83.4091797 513.547852,83.4091797 C515.305673,83.4091797 516.575191,82.4489028 517.356445,80.5283203 C518.137699,78.6077378 518.52832,75.482769 518.52832,71.1533203 C518.52832,66.7750432 518.13363,63.6297296 517.344238,61.7172852 C516.554846,59.8048407 515.289397,58.8486328 513.547852,58.8486328 C511.773754,58.8486328 510.504236,59.8048407 509.739258,61.7172852 C508.97428,63.6297296 508.591797,66.7750432 508.591797,71.1533203 Z" id="20" fill="#3E3D3E"></path>
                </g>
            </g>
        </g>
    </g>
</svg>