<svg width="1440px" height="1414px" viewBox="0 0 1440 1414" version="1.1" xmlns="http://www.w3.org/2000/svg" xmlns:xlink="http://www.w3.org/1999/xlink">
    <mask id="mask" stroke="none" stroke-width="1" fill="none" fill-rule="evenodd" opacity="0.049999997">
        <g id="summit-copy-5" transform="translate(0.000000, -2205.000000)" fill="#C864B4">
            <g id="Group-22" transform="translate(-136.000000, 2205.000000)">
                <g id="Group-5" transform="translate(136.000000, 0.000000)">
                    <path d="M0,1404.29613 L0,933.29441 L0,69.8441732 C63.8846817,41.6684297 197.283463,0.821937703 433.787577,0.821937703 C625.82423,0.821937703 885.984682,38.1694495 1101.60156,57.2474997 C1225.80153,68.2368676 1361.33647,35.0640768 1440,10.8958198 L1440,933.29441 L1440,1344.27217 C1376.11532,1372.44792 1242.71654,1413.29441 1006.21242,1413.29441 C814.17577,1413.29441 524.359134,1396.35325 308.742253,1377.2752 C177.309274,1365.64585 66.4953949,1386.35349 -1.42108547e-14,1404.29613 Z" id="Combined-Shape"></path>
                </g>
            </g>
        </g>
    </mask>
</svg>