<svg width="273px" height="102px" viewBox="0 0 273 102" version="1.1" xmlns="http://www.w3.org/2000/svg" xmlns:xlink="http://www.w3.org/1999/xlink">
    <g id="Page-1" stroke="none" stroke-width="1" fill="none" fill-rule="evenodd">
        <g id="summit-copy-4" transform="translate(-248.000000, -1797.000000)" fill="#6743DF">
            <path d="M281.438924,1842 L290.069855,1842 C291.134571,1842 291.997694,1841.13688 291.997694,1840.07216 L291.997694,1838.92784 C291.997694,1837.86312 291.134571,1837 290.069855,1837 L266.926948,1837 C265.862232,1837 264.999109,1837.86312 264.999109,1838.92784 L264.999109,1840.07216 C264.999109,1841.13688 265.862232,1842 266.926948,1842 L275.557817,1842 L277.596094,1838.35522 C277.704348,1838.13759 277.925499,1838 278.167256,1838 L278.829258,1838 C279.071015,1838 279.292166,1838.13759 279.400419,1838.35522 L281.438924,1842 Z M276.825581,1869.32656 L252.182811,1855.17906 C251.451064,1854.75896 250.999843,1853.97962 250.999843,1853.13585 L250.999843,1824.86414 C250.999843,1824.02038 251.451059,1823.24104 252.182799,1822.82094 L276.825226,1808.67345 C277.55164,1808.2564 278.444858,1808.2564 279.171271,1808.67345 L303.813698,1822.82094 C304.545438,1823.24104 304.996655,1824.02038 304.996655,1824.86414 L304.996655,1853.13587 C304.996655,1853.97962 304.545444,1854.75896 303.81371,1855.17906 L279.171626,1869.32655 C278.445214,1869.74359 277.551997,1869.7436 276.825581,1869.32656 Z M272.926634,1823 C271.861918,1823 270.998795,1823.86312 270.998795,1824.92784 L270.998795,1826.07216 C270.998795,1827.13688 271.861918,1828 272.926634,1828 L284.070169,1828 C285.134886,1828 285.998009,1827.13688 285.998009,1826.07216 L285.998009,1824.92784 C285.998009,1823.86312 285.134886,1823 284.070169,1823 L272.926634,1823 Z M272.926634,1850 C271.861918,1850 270.998795,1850.86312 270.998795,1851.92784 L270.998795,1853.07216 C270.998795,1854.13688 271.861918,1855 272.926634,1855 L284.070169,1855 C285.134886,1855 285.998009,1854.13688 285.998009,1853.07216 L285.998009,1851.92784 C285.998009,1850.86312 285.134886,1850 284.070169,1850 L272.926634,1850 Z M269.926791,1830 C268.862075,1830 267.998952,1830.86312 267.998952,1831.92784 L267.998952,1833.07216 C267.998952,1834.13688 268.862075,1835 269.926791,1835 L287.070012,1835 C288.134728,1835 288.997851,1834.13688 288.997851,1833.07216 L288.997851,1831.92784 C288.997851,1830.86312 288.134728,1830 287.070012,1830 L269.926791,1830 Z M269.926791,1844 C268.862075,1844 267.998952,1844.86312 267.998952,1845.92784 L267.998952,1847.07216 C267.998952,1848.13688 268.862075,1849 269.926791,1849 L287.070012,1849 C288.134728,1849 288.997851,1848.13688 288.997851,1847.07216 L288.997851,1845.92784 C288.997851,1844.86312 288.134728,1844 287.070012,1844 L269.926791,1844 Z M276.926424,1817 C275.861708,1817 274.998585,1817.86312 274.998585,1818.92784 L274.998585,1820.07216 C274.998585,1821.13688 275.861708,1822 276.926424,1822 L279.070431,1822 C280.135148,1822 280.998271,1821.13688 280.998271,1820.07216 L280.998271,1818.92784 C280.998271,1817.86312 280.135148,1817 279.070431,1817 L276.926424,1817 Z M276.926424,1857 C275.861708,1857 274.998585,1857.86312 274.998585,1858.92784 L274.998585,1860.07216 C274.998585,1861.13688 275.861708,1862 276.926424,1862 L279.070431,1862 C280.135148,1862 280.998271,1861.13688 280.998271,1860.07216 L280.998271,1858.92784 C280.998271,1857.86312 280.135148,1857 279.070431,1857 L276.926424,1857 Z M338.612582,1866.00013 C338.612582,1870.80017 340.704222,1874.7287 343.994969,1877.48122 C342.323167,1876.84671 340.509405,1876.50021 338.612582,1876.50021 C336.15245,1876.50021 333.91885,1876.88421 331.726026,1878.12322 L297.562062,1897.86037 C294.931277,1899.37988 291.682816,1899.37988 289.05354,1897.86037 L252.208954,1876.57821 C249.603843,1875.0737 248,1872.30168 248,1869.30766 L248,1863.90612 L257.061258,1869.10366 L257.061258,1869.10666 L293.306291,1889.90731 L329.551324,1868.96865 L329.551324,1827.03135 L315.204332,1818.75278 L315.204332,1818.74828 L284.273727,1800.90115 L289.05354,1798.13963 C291.682816,1796.62012 294.931277,1796.62012 297.560552,1798.13963 L334.403628,1819.42329 C337.010249,1820.9278 338.612582,1823.69682 338.612582,1826.69234 L338.612582,1865.97463 L338.612582,1866.00013 Z M505.194826,1876.86243 C502.554008,1877.13916 499.982402,1876.92459 497.479933,1876.21869 C494.977465,1875.5128 492.685565,1874.34659 490.604167,1872.72002 C488.522768,1871.09346 486.826406,1869.09732 485.515029,1866.73153 C484.190406,1864.34185 483.38658,1861.82753 483.103526,1859.18851 C482.820472,1856.54949 483.042679,1853.98188 483.770153,1851.48559 C484.497627,1848.98931 485.678399,1846.69476 487.312504,1844.60187 C488.94661,1842.50897 490.939237,1840.8109 493.290445,1839.50761 C495.617904,1838.21747 498.083508,1837.42869 500.687331,1837.14122 C503.291154,1836.85375 505.844261,1837.06296 508.34673,1837.76886 C510.812203,1838.46402 513.09748,1839.61828 515.202628,1841.23168 C517.307776,1842.84508 519.033139,1844.80953 520.378769,1847.12509 C521.014588,1848.27214 521.162384,1849.39291 520.822163,1850.48744 C520.481941,1851.58197 519.741852,1852.44517 518.601872,1853.07707 L496.336753,1865.41883 C497.92396,1866.88197 499.856176,1867.76336 502.133459,1868.06301 C504.349996,1868.36509 506.455716,1867.96322 508.45068,1866.85739 C509.495662,1866.27815 510.312836,1865.70804 510.902227,1865.14704 C511.491618,1864.58604 512.000955,1863.93665 512.430254,1863.19886 C513.007068,1862.2231 513.639835,1861.54434 514.328572,1861.16257 C515.397303,1860.57016 516.555329,1860.47494 517.802683,1860.8769 C518.347117,1861.07494 518.859347,1861.36893 519.339389,1861.75886 C519.819431,1862.14879 520.205155,1862.60662 520.496572,1863.13235 C520.933698,1863.92095 521.076461,1864.7946 520.924864,1865.75333 C520.773268,1866.71206 520.354947,1867.69367 519.669888,1868.69819 C518.98483,1869.70272 518.040932,1870.70232 516.838166,1871.69704 C515.6354,1872.69175 514.250302,1873.62353 512.68283,1874.49239 C510.331621,1875.79569 507.835645,1876.58569 505.194826,1876.86243 Z M510.609085,1848.40824 C509.767635,1847.56569 508.820223,1846.86969 507.766818,1846.32022 C506.713413,1845.77075 505.60499,1845.40344 504.441515,1845.21828 C502.053293,1844.85 499.725504,1845.29428 497.458079,1846.55113 C495.262257,1847.7683 493.68935,1849.51813 492.739311,1851.80069 C492.290117,1852.84784 492.02537,1853.96035 491.945062,1855.13825 C491.864754,1856.31615 491.964077,1857.46629 492.243034,1858.58871 L510.609085,1848.40824 Z M405.305625,1875.6919 C404.410985,1874.84708 403.963672,1873.79789 403.963672,1872.54428 L403.963672,1856.84709 C403.963672,1855.42997 403.746793,1854.08101 403.313029,1852.80015 C402.879264,1851.5193 402.255737,1850.4156 401.442428,1849.48902 C400.602009,1848.5352 399.605721,1847.79258 398.453534,1847.26117 C397.301346,1846.72975 396.033959,1846.46404 394.651335,1846.46404 C393.214489,1846.46404 391.811553,1846.71612 390.442483,1847.22029 C389.073414,1847.72445 387.833136,1848.42619 386.721615,1849.32551 C385.582982,1850.25209 384.681579,1851.33535 384.017377,1852.57532 C383.353175,1853.8153 383.021079,1855.11657 383.021079,1856.47918 L383.021079,1872.38077 C383.021079,1873.66163 382.58732,1874.73807 381.719791,1875.61014 C380.852262,1876.48221 379.794976,1876.91824 378.547903,1876.91824 C377.246609,1876.91824 376.162214,1876.48221 375.294685,1875.61014 C374.427155,1874.73807 373.993397,1873.66163 373.993397,1872.38077 L373.993397,1827.57835 C373.993397,1826.2975 374.44071,1825.20742 375.33535,1824.3081 C376.202879,1823.43603 377.27372,1823 378.547903,1823 C379.794976,1823 380.852262,1823.43603 381.719791,1824.3081 C382.58732,1825.18017 383.021079,1826.27024 383.021079,1827.57835 L383.021079,1842.70326 C384.620586,1841.04087 386.416615,1839.75322 388.409222,1838.84027 C390.401828,1837.92732 392.482511,1837.47086 394.651335,1837.47086 C397.226812,1837.47086 399.646369,1837.96139 401.910078,1838.94247 C404.173787,1839.92355 406.132476,1841.31339 407.786204,1843.11204 C409.439932,1844.88343 410.720874,1846.94776 411.629068,1849.30507 C412.537263,1851.66239 412.991354,1854.16274 412.991354,1856.80621 L412.991354,1872.54428 C412.991354,1873.79789 412.544041,1874.84708 411.649401,1875.6919 C411.242747,1876.10068 410.761546,1876.42089 410.205785,1876.65254 C409.650024,1876.88418 409.073939,1877 408.477513,1877 C407.23044,1877 406.173154,1876.56397 405.305625,1875.6919 Z M457.08788,1875.29348 C456.328226,1874.82246 455.758494,1874.16978 455.378667,1873.3354 L442.437485,1843.33851 C442.139049,1842.66563 441.989834,1842.06004 441.989834,1841.52174 C441.989834,1840.33747 442.423915,1839.28779 443.292091,1838.37267 C444.214528,1837.45755 445.299732,1837 446.547735,1837 C447.41591,1837 448.223031,1837.24223 448.969119,1837.72671 C449.715208,1838.21118 450.278157,1838.85714 450.657984,1839.6646 L459.529612,1860.98137 L468.360545,1839.70497 C468.713241,1838.89751 469.269408,1838.24483 470.029062,1837.74689 C470.788716,1837.24896 471.616184,1837 472.51149,1837 C473.759493,1837 474.844697,1837.45755 475.767134,1838.37267 C476.146961,1838.80331 476.445392,1839.28778 476.662435,1839.82609 C476.879479,1840.36439 476.988,1840.91615 476.988,1841.48137 C476.988,1842.10042 476.852349,1842.73292 476.581044,1843.37888 L463.721253,1873.3354 C463.232904,1874.27744 462.65639,1874.95704 461.991693,1875.37422 C461.326996,1875.79141 460.547005,1876 459.651699,1876 C458.702132,1876 457.847534,1875.7645 457.08788,1875.29348 Z M425.318576,1830.66667 C424.433372,1829.77777 423.990777,1828.71606 423.990777,1827.48148 C423.990777,1826.88889 424.107573,1826.31482 424.341169,1825.75926 C424.574764,1825.2037 424.900563,1824.71605 425.318576,1824.2963 C426.179191,1823.43209 427.236502,1823 428.490541,1823 C429.105266,1823 429.683099,1823.11111 430.224057,1823.33333 C430.765015,1823.55556 431.244493,1823.87654 431.662506,1824.2963 C432.080519,1824.71605 432.406319,1825.2037 432.639914,1825.75926 C432.87351,1826.31482 432.990306,1826.88889 432.990306,1827.48148 C432.990306,1828.71606 432.54771,1829.77777 431.662506,1830.66667 C431.244493,1831.08642 430.758868,1831.41358 430.205615,1831.64815 C429.652363,1831.88272 429.080677,1832 428.490541,1832 C427.261091,1832 426.20378,1831.55556 425.318576,1830.66667 Z M425.362903,1875.68583 C424.448148,1874.80971 423.990777,1873.74196 423.990777,1872.48255 L423.990777,1841.55852 C423.990777,1840.95619 424.111846,1840.3744 424.353987,1839.81314 C424.596128,1839.25188 424.93243,1838.76592 425.362903,1838.35524 C425.766471,1837.94456 426.250746,1837.61602 426.815741,1837.36961 C427.380737,1837.1232 427.972628,1837 428.591433,1837 C429.802138,1837 430.8514,1837.45174 431.73925,1838.35524 C432.115914,1838.76592 432.418585,1839.25188 432.647274,1839.81314 C432.875963,1840.3744 432.990306,1840.95619 432.990306,1841.55852 L432.990306,1872.48255 C432.990306,1873.74196 432.559839,1874.80971 431.698893,1875.68583 C430.837948,1876.56195 429.788686,1877 428.551076,1877 C427.286562,1877 426.223848,1876.56195 425.362903,1875.68583 Z" id="LOGO-Copy"></path>
        </g>
    </g>
</svg>