<svg width="342px" height="78px" viewBox="0 0 342 78" version="1.1" xmlns="http://www.w3.org/2000/svg" xmlns:xlink="http://www.w3.org/1999/xlink">
    <!-- Generator: Sketch 49.1 (51147) - http://www.bohemiancoding.com/sketch -->
    <desc>Created with Sketch.</desc>
    <defs>
        <linearGradient x1="50.0066059%" y1="91.602069%" x2="50.0066059%" y2="9.34948276%" id="linearGradient-1">
            <stop stop-color="#2B2B2B" offset="0%"></stop>
            <stop stop-color="#3E3D3E" offset="100%"></stop>
        </linearGradient>
        <linearGradient x1="0.0178735632%" y1="50.0261494%" x2="100.006724%" y2="50.0261494%" id="linearGradient-2">
            <stop stop-color="#6E23F5" offset="0%"></stop>
            <stop stop-color="#009BFF" offset="100%"></stop>
        </linearGradient>
        <linearGradient x1="117.766667%" y1="102.89931%" x2="1.24120248%" y2="1.41063218%" id="linearGradient-3">
            <stop stop-color="#6E23F5" offset="0%"></stop>
            <stop stop-color="#009BFF" offset="100%"></stop>
        </linearGradient>
        <linearGradient x1="49.9412144%" y1="-0.482558659%" x2="49.9412144%" y2="99.9936617%" id="linearGradient-4">
            <stop stop-color="#FFFFFF" offset="0%"></stop>
            <stop stop-color="#FFFFFF" stop-opacity="0.8" offset="100%"></stop>
        </linearGradient>
        <linearGradient x1="50.0375665%" y1="-0.355298503%" x2="50.0375665%" y2="100.120922%" id="linearGradient-5">
            <stop stop-color="#FFFFFF" offset="0%"></stop>
            <stop stop-color="#FFFFFF" stop-opacity="0.8" offset="100%"></stop>
        </linearGradient>
        <linearGradient x1="49.9861933%" y1="102.935081%" x2="49.9861933%" y2="-307.712941%" id="linearGradient-6">
            <stop stop-color="#FFFFFF" offset="0%"></stop>
            <stop stop-color="#FFFFFF" stop-opacity="0.8" offset="100%"></stop>
        </linearGradient>
        <linearGradient x1="50.3416349%" y1="223.737572%" x2="50.3416349%" y2="-169.724561%" id="linearGradient-7">
            <stop stop-color="#FFFFFF" offset="0%"></stop>
            <stop stop-color="#FFFFFF" stop-opacity="0.8" offset="100%"></stop>
        </linearGradient>
    </defs>
    <g id="Page-1" stroke="none" stroke-width="1" fill="none" fill-rule="evenodd">
        <g id="summit-copy-4" transform="translate(-248.000000, -1576.000000)" fill-rule="nonzero">
            <g id="logotype_rgb" transform="translate(248.000000, 1576.000000)">
                <g id="Group" transform="translate(86.610390, 12.925714)">
                    <path d="M200.66961,22.3302857 C201.78,20.1908571 202.446234,17.784 202.446234,15.1988571 C202.446234,6.81942857 195.695065,0.0445714286 187.344935,0.0445714286 L175.352727,0.0445714286 L164.248831,-7.10542736e-15 C163.982338,-7.10542736e-15 163.715844,0.222857143 163.715844,0.534857143 L163.715844,51.2571429 C163.715844,51.5245714 163.937922,51.792 164.248831,51.792 L191.431169,51.792 C200.314286,51.792 207.554026,44.5714286 207.554026,35.6125714 C207.598442,30.1302857 204.844675,25.272 200.66961,22.3302857 Z M186.58987,10.9645714 C188.943896,10.9645714 190.853766,12.8811429 190.853766,15.2434286 C190.853766,17.4274286 189.21039,19.2102857 187.122857,19.4777143 L175.397143,19.4777143 L175.397143,10.9645714 L186.58987,10.9645714 Z M190.720519,40.9165714 L175.397143,40.9165714 L175.397143,30.3531429 L187.389351,30.3531429 C187.70026,30.3531429 188.011169,30.3531429 188.322078,30.3085714 L190.720519,30.3085714 C193.651948,30.3085714 196.005974,32.6708571 196.005974,35.6125714 C196.005974,38.5542857 193.607532,40.9165714 190.720519,40.9165714 Z" id="Shape" fill="#3E3D3E"></path>
                    <path d="M98.7802597,51.792 L88.2093506,51.792 C87.9428571,51.792 87.6763636,51.5691429 87.6763636,51.2571429 L87.6763636,0.579428571 C87.6763636,0.312 87.8984416,0.0445714286 88.2093506,0.0445714286 L98.7802597,0.0445714286 C99.0467532,0.0445714286 99.3132468,0.267428571 99.3132468,0.579428571 L99.3132468,51.2571429 C99.3132468,51.5691429 99.0911688,51.792 98.7802597,51.792 Z" id="Shape" fill="#3E3D3E"></path>
                    <path d="M250.148571,40.9165714 L228.251688,40.9165714 L228.251688,0.579428571 C228.251688,0.312 228.02961,0.0445714286 227.718701,0.0445714286 L217.147792,0.0445714286 C216.881299,0.0445714286 216.614805,0.267428571 216.614805,0.579428571 L216.614805,42.2537143 L216.614805,51.2571429 C216.614805,51.5245714 216.836883,51.792 217.147792,51.792 L226.963636,51.792 L254.812208,51.792 C255.078701,51.792 255.345195,51.5691429 255.345195,51.2571429 L255.345195,46.0868571 C255.300779,43.2342857 252.991169,40.9165714 250.148571,40.9165714 Z" id="Shape" fill="#3E3D3E"></path>
                    <path d="M78.1714286,0.0445714286 L70.4431169,0.0445714286 C68.2223377,0.0445714286 66.2236364,1.47085714 65.5574026,3.61028571 L56.0968831,32.9382857 L46.6363636,3.61028571 C45.9257143,1.47085714 43.9714286,0.0445714286 41.7506494,0.0445714286 L39.3966234,0.0445714286 L37.0425974,0.0445714286 C34.8218182,0.0445714286 32.8231169,1.47085714 32.1568831,3.61028571 L22.6519481,32.9382857 L13.1914286,3.61028571 C12.5251948,1.47085714 10.5264935,0.0445714286 8.30571429,0.0445714286 L0.577402597,0.0445714286 C0.222077922,0.0445714286 -8.40993941e-15,0.401142857 0.0888311688,0.713142857 L15.4122078,48.1817143 C16.1228571,50.3211429 18.0771429,51.7474286 20.2979221,51.7474286 L25.005974,51.7474286 C27.2267532,51.7474286 29.2254545,50.3211429 29.8916883,48.1817143 L30.3802597,46.6662857 L39.3522078,18.8537143 L48.3241558,46.6662857 L48.8127273,48.1817143 C49.5233766,50.3211429 51.4776623,51.7474286 53.6984416,51.7474286 L58.4064935,51.7474286 C60.6272727,51.7474286 62.625974,50.3211429 63.2922078,48.1817143 L78.6155844,0.713142857 C78.7932468,0.401142857 78.5267532,0.0445714286 78.1714286,0.0445714286 Z" id="Shape" fill="url(#linearGradient-1)"></path>
                    <path d="M148.303636,40.9165714 L127.206234,40.9165714 C127.916883,38.4205714 130.492987,35.568 132.580519,33.3394286 L146.438182,18.4525714 C150.968571,13.5942857 153.455844,7.176 153.455844,0.534857143 C153.455844,0.267428571 153.233766,0 152.922857,0 L110.150649,0 C109.884156,0 109.617662,0.222857143 109.617662,0.534857143 L109.617662,5.70514286 C109.617662,8.55771429 111.927273,10.8754286 114.76987,10.8754286 L135.911688,10.8754286 C135.201039,13.3714286 132.624935,16.1794286 130.581818,18.408 L116.724156,33.3394286 C112.193766,38.1977143 109.706494,44.616 109.706494,51.2571429 C109.706494,51.5245714 109.928571,51.792 110.239481,51.792 L153.056104,51.792 C153.322597,51.792 153.589091,51.5691429 153.589091,51.2571429 L153.589091,46.0868571 C153.455844,43.2342857 151.146234,40.9165714 148.303636,40.9165714 Z" id="Shape" fill="#3E3D3E"></path>
                    <path d="M28.7368831,47.9142857 C27.9818182,47.9142857 27.3155844,47.424 27.0935065,46.7108571 L13.1914286,3.61028571 C12.4807792,1.47085714 10.5264935,0.0445714286 8.30571429,0.0445714286 L0.577402597,0.0445714286 C0.222077922,0.0445714286 -8.38218384e-15,0.401142857 0.0888311688,0.713142857 L15.4122078,48.1817143 C16.1228571,50.3211429 18.0771429,51.7474286 20.2979221,51.7474286 L25.005974,51.7474286 C27.2267532,51.7474286 29.2254545,50.3211429 29.8916883,48.1817143 L30.3802597,46.6662857 C30.1581818,47.424 29.4919481,47.9142857 28.7368831,47.9142857 Z" id="Shape" fill="#3E3D3E"></path>
                    <path d="M50.0119481,47.9142857 C50.767013,47.9142857 51.4332468,47.424 51.6553247,46.7108571 L65.5574026,3.61028571 C66.2680519,1.47085714 68.2223377,0.0445714286 70.4431169,0.0445714286 L78.1714286,0.0445714286 C78.5267532,0.0445714286 78.7488312,0.401142857 78.66,0.713142857 L63.3366234,48.1817143 C62.625974,50.3211429 60.6716883,51.7474286 58.4509091,51.7474286 L53.7428571,51.7474286 C51.5220779,51.7474286 49.5233766,50.3211429 48.8571429,48.1817143 L48.3685714,46.6662857 C48.5906494,47.424 49.2568831,47.9142857 50.0119481,47.9142857 Z" id="Shape" fill="#3E3D3E"></path>
                </g>
                <g id="Group">
                    <ellipse id="Oval" fill="url(#linearGradient-2)" cx="38.7303896" cy="38.8217143" rx="38.6415584" ry="38.7771429"></ellipse>
                    <path d="M38.7303896,54.3325714 C27.9374026,54.3325714 18.6101299,48.0034286 14.3018182,38.8217143 C12.614026,35.3005714 11.6812987,31.3337143 11.6812987,27.1885714 C11.6812987,12.4354286 23.407013,0.445714286 37.9753247,0.0445714286 C38.0197403,0.0445714286 38.0641558,0.0445714286 38.1085714,0.0445714286 C17.1,0.401142857 0.0888311688,17.6057143 0.0888311688,38.8217143 C0.0888311688,60.216 17.3664935,77.5988571 38.7303896,77.5988571 C45.1262338,77.5988571 50.3228571,72.384 50.3228571,65.9657143 C50.3228571,59.5474286 45.1262338,54.3325714 38.7303896,54.3325714 Z" id="Shape" fill="url(#linearGradient-3)"></path>
                </g>
                <g id="Group" transform="translate(12.436364, 22.285714)">
                    <path d="M32.0680519,30.2194286 C32.1568831,30.3977143 32.2901299,30.576 32.4233766,30.7542857 C32.601039,30.9325714 32.7787013,31.0217143 33.0451948,31.1108571 C33.9335065,31.4228571 34.9550649,30.9771429 35.265974,30.0857143 L44.9485714,3.432 C45.7924675,1.06971429 48.2797403,-0.133714286 50.5449351,0.713142857 C52.8101299,1.56 53.9649351,4.18971429 53.1654545,6.552 L44.1490909,31.4228571 C43.6161039,32.8937143 42.5057143,34.1862857 40.9955844,34.8994286 C38.5971429,36.0137143 35.798961,35.4342857 34.0223377,33.6068571 C33.5781818,33.1165714 33.1784416,32.5817143 32.8675325,31.9131429 L32.0680519,30.2194286 Z" id="Shape" fill="url(#linearGradient-4)"></path>
                    <path d="M21.5415584,30.2194286 C21.4527273,30.3977143 21.3194805,30.576 21.1862338,30.7542857 C21.0085714,30.9325714 20.8309091,31.0217143 20.5644156,31.1108571 C19.6761039,31.4228571 18.6545455,30.9771429 18.3436364,30.0857143 L8.66103896,3.38742857 C7.81714286,1.02514286 5.32987013,-0.178285714 3.06467532,0.668571429 C0.799480519,1.51542857 -0.355324675,4.14514286 0.444155844,6.50742857 L9.46051948,31.3782857 C9.99350649,32.8491429 11.1038961,34.1417143 12.614026,34.8548571 C15.0124675,35.9691429 17.8106494,35.3897143 19.5872727,33.5622857 C20.0314286,33.072 20.4311688,32.5371429 20.7420779,31.8685714 L21.5415584,30.2194286 Z" id="Shape" fill="url(#linearGradient-5)"></path>
                    <path d="M16.7002597,19.9234286 C17.2776623,18.6308571 18.5657143,17.9177143 19.8537662,17.9177143 L33.7558442,17.9177143 C35.0883117,17.9177143 36.3319481,18.6754286 36.9093506,19.9234286 L38.0641558,22.3748571 L35.265974,30.0411429 C34.9550649,30.9325714 33.9335065,31.4228571 33.0451948,31.0662857 C32.8231169,30.9771429 32.601039,30.8434286 32.4233766,30.7097143 C32.2457143,30.576 32.1568831,30.3977143 32.0680519,30.1748571 L30.8244156,27.5451429 C30.5135065,26.9657143 29.9361039,26.6537143 29.3142857,26.6537143 L24.2953247,26.6537143 C23.6735065,26.6537143 23.0961039,27.0102857 22.7851948,27.5451429 L21.5415584,30.1748571 C21.4527273,30.3531429 21.3194805,30.5314286 21.1862338,30.7097143 C21.0085714,30.888 20.8309091,30.9771429 20.5644156,31.0662857 C19.6761039,31.3782857 18.6545455,30.9325714 18.3436364,30.0411429 L15.5454545,22.3748571 L16.7002597,19.9234286 Z" id="Shape" fill="url(#linearGradient-6)"></path>
                    <path d="M20.8753247,10.92 C20.8753247,10.92 20.8753247,10.92 20.8753247,10.92 C20.9197403,10.7417143 25.1392208,1.73828571 25.1392208,1.73828571 C25.4501299,0.846857143 26.4716883,0.356571429 27.36,0.713142857 C27.8485714,0.891428571 28.2483117,1.29257143 28.3815584,1.73828571 C28.3815584,1.73828571 32.601039,10.7862857 32.6454545,10.92 C33.134026,12.3017143 32.4233766,13.7725714 31.0909091,14.2628571 C30.78,14.352 30.5135065,14.4411429 30.2025974,14.4411429 L23.3625974,14.4411429 C23.0516883,14.4411429 22.7851948,14.3965714 22.4742857,14.2628571 C21.0974026,13.7725714 20.3867532,12.2571429 20.8753247,10.92 Z" id="Shape" fill="url(#linearGradient-7)"></path>
                </g>
            </g>
        </g>
    </g>
</svg>