
<svg width="107px" height="107px" viewBox="0 0 107 107" version="1.1" xmlns="http://www.w3.org/2000/svg" xmlns:xlink="http://www.w3.org/1999/xlink">
    <g id="Page-1" stroke="none" stroke-width="1" fill="none" fill-rule="evenodd">
        <g id="summit-copy-5" transform="translate(-109.000000, -3891.000000)" fill-rule="nonzero">
            <g id="Group-55" transform="translate(109.000000, 3891.000000)">
                <circle id="Oval" fill="#F0F0F0" cx="53.9022556" cy="53.9022556" r="48.2706767"></circle>
                <path d="M70.7969925,53.7414336 C70.7969925,57.9252129 63.2330368,68.3834586 53.9022556,68.3834586 C44.5714745,68.3834586 37.0075188,57.9246116 37.0075188,53.7414336 C37.0075188,44.4994727 44.5714745,37.0075188 53.9022556,37.0075188 C63.2330368,37.0075188 70.7969925,44.4994727 70.7969925,53.7414336 Z" id="Shape" fill="#D80027"></path>
                <path d="M70.7969925,53.9022556 C70.7969925,63.2330368 63.2330368,70.7969925 53.9022556,70.7969925 C44.5714745,70.7969925 37.0075188,63.2330368 37.0075188,53.9022556" id="Shape" fill="#0052B4"></path>
                <rect id="Rectangle-path" fill="#000000" transform="translate(74.819549, 67.176692) rotate(-45.000000) translate(-74.819549, -67.176692) " x="71.6015038" y="65.1654135" width="6.43609023" height="4.02255639"></rect>
                <rect id="Rectangle-path" fill="#000000" transform="translate(67.578947, 75.221805) rotate(-45.000000) translate(-67.578947, -75.221805) " x="64.3609023" y="73.2105263" width="6.43609023" height="4.02255639"></rect>
                <rect id="Rectangle-path" fill="#000000" transform="translate(83.669173, 76.830827) rotate(-45.000000) translate(-83.669173, -76.830827) " x="80.4511278" y="74.8195489" width="6.43609023" height="4.02255639"></rect>
                <rect id="Rectangle-path" fill="#000000" transform="translate(76.428571, 84.071429) rotate(-45.000000) translate(-76.428571, -84.071429) " x="73.2105263" y="82.0601504" width="6.43609023" height="4.02255639"></rect>
                <rect id="Rectangle-path" fill="#000000" transform="translate(79.646617, 72.003759) rotate(-45.000000) translate(-79.646617, -72.003759) " x="76.4285714" y="69.9924812" width="6.43609023" height="4.02255639"></rect>
                <rect id="Rectangle-path" fill="#000000" transform="translate(72.406015, 79.244361) rotate(-45.000000) translate(-72.406015, -79.244361) " x="69.1879699" y="77.2330827" width="6.43609023" height="4.02255639"></rect>
                <rect id="Rectangle-path" fill="#000000" transform="translate(76.026316, 30.973684) rotate(-135.000000) translate(-76.026316, -30.973684) " x="67.5789474" y="28.962406" width="16.8947368" height="4.02255639"></rect>
                <rect id="Rectangle-path" fill="#000000" transform="translate(67.578947, 31.778195) rotate(-135.000000) translate(-67.578947, -31.778195) " x="64.3609023" y="29.7669173" width="6.43609023" height="4.02255639"></rect>
                <rect id="Rectangle-path" fill="#000000" transform="translate(74.819549, 39.018797) rotate(-135.000000) translate(-74.819549, -39.018797) " x="71.6015038" y="37.0075188" width="6.43609023" height="4.02255639"></rect>
                <rect id="Rectangle-path" fill="#000000" transform="translate(76.428571, 22.928571) rotate(-135.000000) translate(-76.428571, -22.928571) " x="73.2105263" y="20.9172932" width="6.43609023" height="4.02255639"></rect>
                <rect id="Rectangle-path" fill="#000000" transform="translate(83.669173, 30.169173) rotate(-135.000000) translate(-83.669173, -30.169173) " x="80.4511278" y="28.1578947" width="6.43609023" height="4.02255639"></rect>
                <rect id="Rectangle-path" fill="#000000" transform="translate(26.951128, 80.048872) rotate(45.000000) translate(-26.951128, -80.048872) " x="18.5037594" y="78.037594" width="16.8947368" height="4.02255639"></rect>
                <rect id="Rectangle-path" fill="#000000" transform="translate(35.398496, 79.244361) rotate(45.000000) translate(-35.398496, -79.244361) " x="32.1804511" y="77.2330827" width="6.43609023" height="4.02255639"></rect>
                <rect id="Rectangle-path" fill="#000000" transform="translate(27.353383, 72.003759) rotate(45.000000) translate(-27.353383, -72.003759) " x="24.1353383" y="69.9924812" width="6.43609023" height="4.02255639"></rect>
                <rect id="Rectangle-path" fill="#000000" transform="translate(35.800752, 71.199248) rotate(45.000000) translate(-35.800752, -71.199248) " x="27.3533835" y="69.1879699" width="16.8947368" height="4.02255639"></rect>
                <rect id="Rectangle-path" fill="#000000" transform="translate(26.951128, 26.951128) rotate(135.000000) translate(-26.951128, -26.951128) " x="18.5037594" y="24.9398496" width="16.8947368" height="4.02255639"></rect>
                <rect id="Rectangle-path" fill="#000000" transform="translate(30.973684, 30.973684) rotate(135.000000) translate(-30.973684, -30.973684) " x="22.5263158" y="28.962406" width="16.8947368" height="4.02255639"></rect>
                <rect id="Rectangle-path" fill="#000000" transform="translate(35.800752, 35.800752) rotate(135.000000) translate(-35.800752, -35.800752) " x="27.3533835" y="33.7894737" width="16.8947368" height="4.02255639"></rect>
                <path d="M53.4781417,0 C31.1963948,0 10.7393068,14.3679797 3.13761893,35.292844 C-4.51966377,56.3745223 2.18827662,80.5649875 19.4456399,94.8368846 C36.7392607,109.139903 61.857553,111.039499 81.0767495,99.4138021 C100.301082,87.7844796 110.453788,64.7633219 105.934592,42.7392482 C101.507249,21.169603 83.5682443,4.05299519 61.8001453,0.645385248 C59.0472943,0.214524123 56.2615095,0 53.4781417,0 M96.5825732,72.9617692 C87.44538,93.2086163 64.6360864,104.627343 42.958027,99.671231 C26.2750429,95.8578382 12.6274163,82.8223252 7.97618283,66.3761808 C3.21768758,49.5593024 8.37743254,31.0842432 21.0944499,19.1128908 C34.8523598,6.16077023 55.5910478,2.62444582 72.8583819,10.4113693 C93.4731901,19.7075154 104.877082,43.0867168 99.3417692,65.0530806 C98.6580131,67.7654511 97.7246846,70.4101407 96.5825732,72.9617692 C95.9516926,74.3598017 97.0484821,71.920874 96.5825732,72.9617692" id="Shape" fill="#FFFFFF"></path>
            </g>
        </g>
    </g>
</svg>