<svg width="18px" height="19px" viewBox="0 0 18 19" version="1.1" xmlns="http://www.w3.org/2000/svg" xmlns:xlink="http://www.w3.org/1999/xlink">
    <g stroke="none" stroke-width="1" fill="none" fill-rule="evenodd">
        <g transform="translate(-323.000000, -33.000000)" fill="#6743DF">
            <g transform="translate(16.000000, 16.000000)">
                <g transform="translate(306.000000, 16.000000)">
                    <rect transform="translate(10.000000, 10.500000) rotate(-45.000000) translate(-10.000000, -10.500000) " x="-2" y="9" width="24" height="3" rx="1.5"></rect>
                    <rect transform="translate(10.000000, 10.500000) rotate(45.000000) translate(-10.000000, -10.500000) " x="-2" y="9" width="24" height="3" rx="1.5"></rect>
                </g>
            </g>
        </g>
    </g>
</svg>